EESchema Schematic File Version 2
LIBS:Shake_Table_PCB-rescue
LIBS:power
LIBS:device
LIBS:transistors
LIBS:conn
LIBS:linear
LIBS:regul
LIBS:74xx
LIBS:cmos4000
LIBS:adc-dac
LIBS:memory
LIBS:xilinx
LIBS:microcontrollers
LIBS:dsp
LIBS:microchip
LIBS:analog_switches
LIBS:motorola
LIBS:texas
LIBS:intel
LIBS:audio
LIBS:interface
LIBS:digital-audio
LIBS:philips
LIBS:display
LIBS:cypress
LIBS:siliconi
LIBS:opto
LIBS:atmel
LIBS:contrib
LIBS:valves
LIBS:arduino
LIBS:motors
LIBS:switches
LIBS:freetronics_schematic
LIBS:battery
LIBS:Shake_Table_PCB-cache
EELAYER 25 0
EELAYER END
$Descr A4 11693 8268
encoding utf-8
Sheet 1 1
Title ""
Date ""
Rev ""
Comp ""
Comment1 ""
Comment2 ""
Comment3 ""
Comment4 ""
$EndDescr
$Comp
L arduino_nano U1
U 1 1 5962F896
P 5500 3100
F 0 "U1" H 5500 3450 60  0000 C CNN
F 1 "arduino_nano" H 5500 3350 60  0000 C CNN
F 2 "arduino_footprint:arduino-nano" H 5500 3100 60  0001 C CNN
F 3 "" H 5500 3100 60  0001 C CNN
	1    5500 3100
	1    0    0    -1  
$EndComp
$Comp
L GND #PWR01
U 1 1 59644044
P 5050 3250
F 0 "#PWR01" H 5050 3000 50  0001 C CNN
F 1 "GND" H 5050 3100 50  0000 C CNN
F 2 "" H 5050 3250 50  0001 C CNN
F 3 "" H 5050 3250 50  0001 C CNN
	1    5050 3250
	0    1    1    0   
$EndComp
$Comp
L GND #PWR02
U 1 1 59644064
P 5950 3050
F 0 "#PWR02" H 5950 2800 50  0001 C CNN
F 1 "GND" H 5950 2900 50  0000 C CNN
F 2 "" H 5950 3050 50  0001 C CNN
F 3 "" H 5950 3050 50  0001 C CNN
	1    5950 3050
	0    -1   -1   0   
$EndComp
$Comp
L POT RV1
U 1 1 5964439B
P 6500 3350
F 0 "RV1" V 6325 3350 50  0000 C CNN
F 1 "100K" V 6400 3350 50  0000 C CNN
F 2 "Potentiometers:Potentiometer_Alps_RK163_Single_Vertical" H 6500 3350 50  0001 C CNN
F 3 "" H 6500 3350 50  0001 C CNN
	1    6500 3350
	-1   0    0    1   
$EndComp
$Comp
L GND #PWR03
U 1 1 596445A6
P 6500 3550
F 0 "#PWR03" H 6500 3300 50  0001 C CNN
F 1 "GND" H 6500 3400 50  0000 C CNN
F 2 "" H 6500 3550 50  0001 C CNN
F 3 "" H 6500 3550 50  0001 C CNN
	1    6500 3550
	1    0    0    -1  
$EndComp
$Comp
L +9V #PWR04
U 1 1 59644641
P 4250 2700
F 0 "#PWR04" H 4250 2550 50  0001 C CNN
F 1 "+9V" H 4250 2840 50  0000 C CNN
F 2 "" H 4250 2700 50  0001 C CNN
F 3 "" H 4250 2700 50  0001 C CNN
	1    4250 2700
	1    0    0    -1  
$EndComp
$Comp
L +9V #PWR05
U 1 1 5964465B
P 5950 2900
F 0 "#PWR05" H 5950 2750 50  0001 C CNN
F 1 "+9V" H 5950 3040 50  0000 C CNN
F 2 "" H 5950 2900 50  0001 C CNN
F 3 "" H 5950 2900 50  0001 C CNN
	1    5950 2900
	1    0    0    -1  
$EndComp
$Comp
L Motor_DC Motor1
U 1 1 59644D38
P 4250 3000
F 0 "Motor1" H 4350 3100 50  0000 L CNN
F 1 "Motor_DC" H 4350 2800 50  0000 L TNN
F 2 "MyConnectors:JST_XH_B02B-XH-A_02x2.50mm_Straight_Pin_Swaped" H 4250 2910 50  0001 C CNN
F 3 "" H 4250 2910 50  0001 C CNN
	1    4250 3000
	1    0    0    -1  
$EndComp
$Comp
L GND #PWR06
U 1 1 59644DA2
P 4250 4000
F 0 "#PWR06" H 4250 3750 50  0001 C CNN
F 1 "GND" H 4250 3850 50  0000 C CNN
F 2 "" H 4250 4000 50  0001 C CNN
F 3 "" H 4250 4000 50  0001 C CNN
	1    4250 4000
	1    0    0    -1  
$EndComp
$Comp
L R R2
U 1 1 59644DC6
P 4050 3950
F 0 "R2" V 4130 3950 50  0000 C CNN
F 1 "100K" V 4050 3950 50  0000 C CNN
F 2 "Resistors_THT:R_Axial_DIN0207_L6.3mm_D2.5mm_P7.62mm_Horizontal" V 3980 3950 50  0001 C CNN
F 3 "" H 4050 3950 50  0001 C CNN
	1    4050 3950
	0    1    1    0   
$EndComp
$Comp
L GND #PWR07
U 1 1 59644F9C
P 3150 3400
F 0 "#PWR07" H 3150 3150 50  0001 C CNN
F 1 "GND" H 3150 3250 50  0000 C CNN
F 2 "" H 3150 3400 50  0001 C CNN
F 3 "" H 3150 3400 50  0001 C CNN
	1    3150 3400
	1    0    0    -1  
$EndComp
$Comp
L LED D2
U 1 1 59644FD8
P 3150 3200
F 0 "D2" H 3150 3300 50  0000 C CNN
F 1 "LED" H 3150 3100 50  0000 C CNN
F 2 "LEDs:LED_D5.0mm" H 3150 3200 50  0001 C CNN
F 3 "" H 3150 3200 50  0001 C CNN
	1    3150 3200
	0    -1   -1   0   
$EndComp
$Comp
L R R1
U 1 1 59645087
P 3150 2850
F 0 "R1" V 3230 2850 50  0000 C CNN
F 1 "330" V 3150 2850 50  0000 C CNN
F 2 "Resistors_THT:R_Axial_DIN0207_L6.3mm_D2.5mm_P7.62mm_Horizontal" V 3080 2850 50  0001 C CNN
F 3 "" H 3150 2850 50  0001 C CNN
	1    3150 2850
	1    0    0    -1  
$EndComp
$Comp
L SW_Push SW3
U 1 1 596453B5
P 4550 5050
F 0 "SW3" H 4600 5150 50  0000 L CNN
F 1 "SW_Push" H 4550 4990 50  0000 C CNN
F 2 "Buttons_Switches_THT:SW_Tactile_SKHH_Angled" H 4550 5250 50  0001 C CNN
F 3 "" H 4550 5250 50  0001 C CNN
	1    4550 5050
	1    0    0    -1  
$EndComp
$Comp
L R R4
U 1 1 596455C2
P 5250 4800
F 0 "R4" V 5330 4800 50  0000 C CNN
F 1 "R" V 5250 4800 50  0000 C CNN
F 2 "Resistors_THT:R_Axial_DIN0207_L6.3mm_D2.5mm_P7.62mm_Horizontal" V 5180 4800 50  0001 C CNN
F 3 "" H 5250 4800 50  0001 C CNN
	1    5250 4800
	0    1    1    0   
$EndComp
$Comp
L R R5
U 1 1 59645609
P 5250 5050
F 0 "R5" V 5330 5050 50  0000 C CNN
F 1 "R" V 5250 5050 50  0000 C CNN
F 2 "Resistors_THT:R_Axial_DIN0207_L6.3mm_D2.5mm_P7.62mm_Horizontal" V 5180 5050 50  0001 C CNN
F 3 "" H 5250 5050 50  0001 C CNN
	1    5250 5050
	0    1    1    0   
$EndComp
$Comp
L R R3
U 1 1 59645698
P 5250 4550
F 0 "R3" V 5330 4550 50  0000 C CNN
F 1 "R" V 5250 4550 50  0000 C CNN
F 2 "Resistors_THT:R_Axial_DIN0207_L6.3mm_D2.5mm_P7.62mm_Horizontal" V 5180 4550 50  0001 C CNN
F 3 "" H 5250 4550 50  0001 C CNN
	1    5250 4550
	0    1    1    0   
$EndComp
$Comp
L GND #PWR08
U 1 1 59646704
P 5500 4800
F 0 "#PWR08" H 5500 4550 50  0001 C CNN
F 1 "GND" H 5500 4650 50  0000 C CNN
F 2 "" H 5500 4800 50  0001 C CNN
F 3 "" H 5500 4800 50  0001 C CNN
	1    5500 4800
	0    -1   -1   0   
$EndComp
$Comp
L SW_Push SW2
U 1 1 5964683B
P 4550 4800
F 0 "SW2" H 4600 4900 50  0000 L CNN
F 1 "SW_Push" H 4550 4740 50  0000 C CNN
F 2 "Buttons_Switches_THT:SW_Tactile_SKHH_Angled" H 4550 5000 50  0001 C CNN
F 3 "" H 4550 5000 50  0001 C CNN
	1    4550 4800
	1    0    0    -1  
$EndComp
$Comp
L SW_Push SW4
U 1 1 59646868
P 4550 4550
F 0 "SW4" H 4600 4650 50  0000 L CNN
F 1 "SW_Push" H 4550 4490 50  0000 C CNN
F 2 "Buttons_Switches_THT:SW_Tactile_SKHH_Angled" H 4550 4750 50  0001 C CNN
F 3 "" H 4550 4750 50  0001 C CNN
	1    4550 4550
	1    0    0    -1  
$EndComp
$Comp
L +5V #PWR09
U 1 1 59646975
P 4250 4550
F 0 "#PWR09" H 4250 4400 50  0001 C CNN
F 1 "+5V" H 4250 4690 50  0000 C CNN
F 2 "" H 4250 4550 50  0001 C CNN
F 3 "" H 4250 4550 50  0001 C CNN
	1    4250 4550
	0    -1   -1   0   
$EndComp
$Comp
L +5V #PWR010
U 1 1 59646B73
P 6500 3100
F 0 "#PWR010" H 6500 2950 50  0001 C CNN
F 1 "+5V" H 6500 3240 50  0000 C CNN
F 2 "" H 6500 3100 50  0001 C CNN
F 3 "" H 6500 3100 50  0001 C CNN
	1    6500 3100
	1    0    0    -1  
$EndComp
$Comp
L D D1
U 1 1 596BFA88
P 3900 3050
F 0 "D1" H 3900 3150 50  0000 C CNN
F 1 "D" H 3900 2950 50  0000 C CNN
F 2 "Diodes_THT:D_DO-35_SOD27_P7.62mm_Horizontal" H 3900 3050 50  0001 C CNN
F 3 "" H 3900 3050 50  0001 C CNN
	1    3900 3050
	0    1    1    0   
$EndComp
$Comp
L +5V #PWR011
U 1 1 596C4EE7
P 3150 2650
F 0 "#PWR011" H 3150 2500 50  0001 C CNN
F 1 "+5V" H 3150 2790 50  0000 C CNN
F 2 "" H 3150 2650 50  0001 C CNN
F 3 "" H 3150 2650 50  0001 C CNN
	1    3150 2650
	1    0    0    -1  
$EndComp
$Comp
L GND #PWR012
U 1 1 596D1BF1
P 2400 3450
F 0 "#PWR012" H 2400 3200 50  0001 C CNN
F 1 "GND" H 2400 3300 50  0000 C CNN
F 2 "" H 2400 3450 50  0001 C CNN
F 3 "" H 2400 3450 50  0001 C CNN
	1    2400 3450
	1    0    0    -1  
$EndComp
$Comp
L Battery_Cell Battery1
U 1 1 596D3FCB
P 2400 3250
F 0 "Battery1" H 2550 3350 50  0000 L CNN
F 1 "9V_Battery" H 2500 3250 50  0000 L CNN
F 2 "MyConnectors:JST_XH_B02B-XH-A_02x2.50mm_Straight_Pin_Swaped" V 2400 3310 50  0001 C CNN
F 3 "" V 2400 3310 50  0001 C CNN
	1    2400 3250
	1    0    0    -1  
$EndComp
$Comp
L +9V #PWR013
U 1 1 596D4056
P 2400 2350
F 0 "#PWR013" H 2400 2200 50  0001 C CNN
F 1 "+9V" H 2400 2490 50  0000 C CNN
F 2 "" H 2400 2350 50  0001 C CNN
F 3 "" H 2400 2350 50  0001 C CNN
	1    2400 2350
	1    0    0    -1  
$EndComp
NoConn ~ 5100 2950
NoConn ~ 5100 3050
NoConn ~ 5100 3350
NoConn ~ 5100 3550
NoConn ~ 5100 3650
NoConn ~ 5100 3750
NoConn ~ 5100 3850
NoConn ~ 5100 3950
NoConn ~ 5100 4050
NoConn ~ 5900 4350
NoConn ~ 5900 4250
NoConn ~ 5900 4150
NoConn ~ 5900 4050
NoConn ~ 5900 3950
NoConn ~ 5900 3850
NoConn ~ 5900 3750
NoConn ~ 5900 3650
NoConn ~ 5900 3550
NoConn ~ 5900 3450
NoConn ~ 5900 3150
$Comp
L MOSFET_N Q1
U 1 1 59ADFB34
P 4150 3700
F 0 "Q1" H 4500 3650 60  0000 R CNN
F 1 "MOSFET_N" H 4800 3800 60  0000 R CNN
F 2 "TO_SOT_Packages_THT:TO-220_Horizontal" H 3750 3100 60  0001 C CNN
F 3 "" H 4150 3700 60  0000 C CNN
	1    4150 3700
	1    0    0    -1  
$EndComp
$Comp
L SW_PUSHBUTTON Reset_SW1
U 1 1 59ADFE81
P 5350 2400
F 0 "Reset_SW1" H 5350 2550 50  0000 C CNN
F 1 "SW_PUSHBUTTON" H 5350 2320 50  0000 C CNN
F 2 "Buttons_Switches_THT:SW_Tactile_SKHH_Angled" H 5400 2650 60  0001 C CNN
F 3 "" H 5350 2400 60  0000 C CNN
	1    5350 2400
	1    0    0    -1  
$EndComp
$Comp
L GND #PWR014
U 1 1 59AE0197
P 5700 2400
F 0 "#PWR014" H 5700 2150 50  0001 C CNN
F 1 "GND" H 5700 2250 50  0000 C CNN
F 2 "" H 5700 2400 50  0001 C CNN
F 3 "" H 5700 2400 50  0001 C CNN
	1    5700 2400
	0    -1   -1   0   
$EndComp
$Comp
L SW_SPST On/Off_SW1
U 1 1 59AE02B3
P 2400 2700
F 0 "On/Off_SW1" H 2400 2825 50  0000 C CNN
F 1 "SW_SPST" H 2400 2600 50  0000 C CNN
F 2 "Connectors_JST:JST_XH_B02B-XH-A_02x2.50mm_Straight" H 2400 2700 50  0001 C CNN
F 3 "" H 2400 2700 50  0001 C CNN
	1    2400 2700
	0    -1   -1   0   
$EndComp
$Comp
L CP C1
U 1 1 59B60D2B
P 3600 3050
F 0 "C1" H 3625 3150 50  0000 L CNN
F 1 "CP" H 3625 2950 50  0000 L CNN
F 2 "Capacitors_THT:CP_Radial_D5.0mm_P2.00mm" H 3638 2900 50  0001 C CNN
F 3 "" H 3600 3050 50  0001 C CNN
	1    3600 3050
	1    0    0    -1  
$EndComp
$Comp
L CP C2
U 1 1 59B60DAE
P 1900 3200
F 0 "C2" H 1925 3300 50  0000 L CNN
F 1 "CP" H 1925 3100 50  0000 L CNN
F 2 "Capacitors_THT:CP_Radial_D10.0mm_P5.00mm" H 1938 3050 50  0001 C CNN
F 3 "" H 1900 3200 50  0001 C CNN
	1    1900 3200
	1    0    0    -1  
$EndComp
Wire Wire Line
	1900 3350 1900 3400
Connection ~ 3900 3350
Wire Wire Line
	3600 3200 3600 3350
Connection ~ 3900 2750
Wire Wire Line
	3600 2900 3600 2750
Connection ~ 2400 3400
Wire Wire Line
	1900 3400 2400 3400
Wire Wire Line
	5650 2400 5700 2400
Wire Wire Line
	4950 2400 5050 2400
Wire Wire Line
	4950 3150 4950 2400
Wire Wire Line
	5100 3150 4950 3150
Connection ~ 3900 3700
Wire Wire Line
	3900 3700 3950 3700
Wire Wire Line
	5900 3350 6350 3350
Wire Wire Line
	5900 3250 6350 3250
Wire Wire Line
	5950 3050 5900 3050
Wire Wire Line
	5100 3250 5050 3250
Wire Wire Line
	5900 2950 5950 2950
Wire Wire Line
	5950 2950 5950 2900
Wire Wire Line
	3900 3450 5100 3450
Wire Wire Line
	4250 2700 4250 2800
Wire Wire Line
	4250 3300 4250 3500
Wire Wire Line
	4250 3900 4250 4000
Wire Wire Line
	4200 3950 4250 3950
Connection ~ 4250 3950
Wire Wire Line
	3150 2650 3150 2700
Wire Wire Line
	3150 3000 3150 3050
Wire Wire Line
	3150 3400 3150 3350
Wire Wire Line
	5100 4350 5050 4350
Wire Wire Line
	5050 4350 5050 4550
Wire Wire Line
	4750 4550 5100 4550
Wire Wire Line
	5100 4250 5000 4250
Wire Wire Line
	5000 4250 5000 4800
Wire Wire Line
	4750 4800 5100 4800
Wire Wire Line
	5100 4150 4950 4150
Wire Wire Line
	4950 4150 4950 5050
Wire Wire Line
	4750 5050 5100 5050
Wire Wire Line
	5450 4550 5450 5050
Wire Wire Line
	5450 5050 5400 5050
Wire Wire Line
	5400 4800 5500 4800
Connection ~ 5450 4800
Wire Wire Line
	5450 4550 5400 4550
Connection ~ 4950 5050
Connection ~ 5000 4800
Connection ~ 5050 4550
Wire Wire Line
	4250 4550 4350 4550
Wire Wire Line
	4300 4550 4300 5050
Wire Wire Line
	4300 5050 4350 5050
Connection ~ 4300 4550
Wire Wire Line
	4350 4800 4300 4800
Connection ~ 4300 4800
Wire Wire Line
	6350 3250 6350 3150
Wire Wire Line
	6350 3150 6500 3150
Wire Wire Line
	6500 3100 6500 3200
Connection ~ 6500 3150
Wire Wire Line
	6500 3500 6500 3550
Wire Wire Line
	3600 2750 4250 2750
Wire Wire Line
	3900 2750 3900 2900
Connection ~ 4250 2750
Wire Wire Line
	2400 3350 2400 3450
Wire Wire Line
	2400 2900 2400 3050
Wire Wire Line
	2400 2350 2400 2500
Wire Wire Line
	3900 3450 3900 3950
Wire Wire Line
	3900 3200 3900 3350
Wire Wire Line
	3600 3350 4250 3350
Connection ~ 4250 3350
Wire Wire Line
	1900 3050 1900 2400
Wire Wire Line
	1900 2400 2400 2400
Connection ~ 2400 2400
$EndSCHEMATC
