G04 #@! TF.GenerationSoftware,KiCad,Pcbnew,5.0.0-rc2-unknown-8444b1b~65~ubuntu16.04.1*
G04 #@! TF.CreationDate,2018-06-10T17:37:30+12:00*
G04 #@! TF.ProjectId,Shake_Table_PCB,5368616B655F5461626C655F5043422E,rev?*
G04 #@! TF.SameCoordinates,Original*
G04 #@! TF.FileFunction,Legend,Bot*
G04 #@! TF.FilePolarity,Positive*
%FSLAX46Y46*%
G04 Gerber Fmt 4.6, Leading zero omitted, Abs format (unit mm)*
G04 Created by KiCad (PCBNEW 5.0.0-rc2-unknown-8444b1b~65~ubuntu16.04.1) date Sun Jun 10 17:37:30 2018*
%MOMM*%
%LPD*%
G01*
G04 APERTURE LIST*
G04 APERTURE END LIST*
M02*
