(module Connectors_JST:JST_XH_B02B-XH-A_02x2.50mm_Straight (layer F.Cu) (tedit 59B70822)
  (descr "JST XH series connector, B02B-XH-A, top entry type, through hole")
  (tags "connector jst xh tht top vertical 2.50mm")
  (fp_text reference REF** (at 1.25 -3.5) (layer F.SilkS)
    (effects (font (size 1 1) (thickness 0.15)))
  )
  (fp_text value JST_XH_B02B-XH-A_02x2.50mm_Straight (at 1.25 4.5) (layer F.Fab)
    (effects (font (size 1 1) (thickness 0.15)))
  )
  (fp_line (start -2.45 -2.35) (end -2.45 3.4) (layer F.Fab) (width 0.1))
  (fp_line (start -2.45 3.4) (end 4.95 3.4) (layer F.Fab) (width 0.1))
  (fp_line (start 4.95 3.4) (end 4.95 -2.35) (layer F.Fab) (width 0.1))
  (fp_line (start 4.95 -2.35) (end -2.45 -2.35) (layer F.Fab) (width 0.1))
  (fp_line (start -2.95 -2.85) (end -2.95 3.9) (layer F.CrtYd) (width 0.05))
  (fp_line (start -2.95 3.9) (end 5.45 3.9) (layer F.CrtYd) (width 0.05))
  (fp_line (start 5.45 3.9) (end 5.45 -2.85) (layer F.CrtYd) (width 0.05))
  (fp_line (start 5.45 -2.85) (end -2.95 -2.85) (layer F.CrtYd) (width 0.05))
  (fp_line (start -2.55 -2.45) (end -2.55 3.5) (layer F.SilkS) (width 0.12))
  (fp_line (start -2.55 3.5) (end 5.05 3.5) (layer F.SilkS) (width 0.12))
  (fp_line (start 5.05 3.5) (end 5.05 -2.45) (layer F.SilkS) (width 0.12))
  (fp_line (start 5.05 -2.45) (end -2.55 -2.45) (layer F.SilkS) (width 0.12))
  (fp_line (start 0.75 -2.45) (end 0.75 -1.7) (layer F.SilkS) (width 0.12))
  (fp_line (start 0.75 -1.7) (end 1.75 -1.7) (layer F.SilkS) (width 0.12))
  (fp_line (start 1.75 -1.7) (end 1.75 -2.45) (layer F.SilkS) (width 0.12))
  (fp_line (start 1.75 -2.45) (end 0.75 -2.45) (layer F.SilkS) (width 0.12))
  (fp_line (start -2.55 -2.45) (end -2.55 -1.7) (layer F.SilkS) (width 0.12))
  (fp_line (start -2.55 -1.7) (end -0.75 -1.7) (layer F.SilkS) (width 0.12))
  (fp_line (start -0.75 -1.7) (end -0.75 -2.45) (layer F.SilkS) (width 0.12))
  (fp_line (start -0.75 -2.45) (end -2.55 -2.45) (layer F.SilkS) (width 0.12))
  (fp_line (start 3.25 -2.45) (end 3.25 -1.7) (layer F.SilkS) (width 0.12))
  (fp_line (start 3.25 -1.7) (end 5.05 -1.7) (layer F.SilkS) (width 0.12))
  (fp_line (start 5.05 -1.7) (end 5.05 -2.45) (layer F.SilkS) (width 0.12))
  (fp_line (start 5.05 -2.45) (end 3.25 -2.45) (layer F.SilkS) (width 0.12))
  (fp_line (start -2.55 -0.2) (end -1.8 -0.2) (layer F.SilkS) (width 0.12))
  (fp_line (start -1.8 -0.2) (end -1.8 2.75) (layer F.SilkS) (width 0.12))
  (fp_line (start -1.8 2.75) (end 1.25 2.75) (layer F.SilkS) (width 0.12))
  (fp_line (start 5.05 -0.2) (end 4.3 -0.2) (layer F.SilkS) (width 0.12))
  (fp_line (start 4.3 -0.2) (end 4.3 2.75) (layer F.SilkS) (width 0.12))
  (fp_line (start 4.3 2.75) (end 1.25 2.75) (layer F.SilkS) (width 0.12))
  (fp_line (start -0.35 -2.75) (end -2.85 -2.75) (layer F.SilkS) (width 0.12))
  (fp_line (start -2.85 -2.75) (end -2.85 -0.25) (layer F.SilkS) (width 0.12))
  (fp_line (start -0.35 -2.75) (end -2.85 -2.75) (layer F.Fab) (width 0.1))
  (fp_line (start -2.85 -2.75) (end -2.85 -0.25) (layer F.Fab) (width 0.1))
  (fp_text user %R (at 1.25 2.5) (layer F.Fab)
    (effects (font (size 1 1) (thickness 0.15)))
  )
  (pad 2 thru_hole rect (at 0 0) (size 1.75 1.75) (drill 1.05) (layers *.Cu *.Mask))
  (pad 1 thru_hole circle (at 2.5 0) (size 1.75 1.75) (drill 1.05) (layers *.Cu *.Mask))
  (model Connectors_JST.3dshapes/JST_XH_B02B-XH-A_02x2.50mm_Straight.wrl
    (at (xyz 0 0 0))
    (scale (xyz 1 1 1))
    (rotate (xyz 0 0 0))
  )
)
