EESchema Schematic File Version 4
LIBS:Shake_Table_PCB-cache
EELAYER 26 0
EELAYER END
$Descr A4 11693 8268
encoding utf-8
Sheet 1 1
Title ""
Date ""
Rev ""
Comp ""
Comment1 ""
Comment2 ""
Comment3 ""
Comment4 ""
$EndDescr
$Comp
L power:GND #PWR02
U 1 1 59644064
P 7700 4750
F 0 "#PWR02" H 7700 4500 50  0001 C CNN
F 1 "GND" H 7700 4600 50  0000 C CNN
F 2 "" H 7700 4750 50  0001 C CNN
F 3 "" H 7700 4750 50  0001 C CNN
	1    7700 4750
	1    0    0    -1  
$EndComp
$Comp
L Device:R_POT RV1
U 1 1 5964439B
P 8500 3650
F 0 "RV1" V 8325 3650 50  0000 C CNN
F 1 "100K" V 8500 3650 50  0000 C CNN
F 2 "Potentiometer_THT:Potentiometer_Alps_RK09K_Single_Horizontal" H 8500 3650 50  0001 C CNN
F 3 "" H 8500 3650 50  0001 C CNN
	1    8500 3650
	-1   0    0    1   
$EndComp
$Comp
L power:GND #PWR03
U 1 1 596445A6
P 8500 3850
F 0 "#PWR03" H 8500 3600 50  0001 C CNN
F 1 "GND" H 8500 3700 50  0000 C CNN
F 2 "" H 8500 3850 50  0001 C CNN
F 3 "" H 8500 3850 50  0001 C CNN
	1    8500 3850
	1    0    0    -1  
$EndComp
$Comp
L power:+9V #PWR04
U 1 1 59644641
P 4250 2700
F 0 "#PWR04" H 4250 2550 50  0001 C CNN
F 1 "+9V" H 4250 2840 50  0000 C CNN
F 2 "" H 4250 2700 50  0001 C CNN
F 3 "" H 4250 2700 50  0001 C CNN
	1    4250 2700
	1    0    0    -1  
$EndComp
$Comp
L Motor:Motor_DC Motor1
U 1 1 59644D38
P 4250 3000
F 0 "Motor1" H 4350 3100 50  0000 L CNN
F 1 "Motor_DC" H 4350 2800 50  0000 L TNN
F 2 "MyConnectors:JST_XH_B02B-XH-A_02x2.50mm_Straight_Pin_Swaped" H 4250 2910 50  0001 C CNN
F 3 "" H 4250 2910 50  0001 C CNN
	1    4250 3000
	1    0    0    -1  
$EndComp
$Comp
L power:GND #PWR06
U 1 1 59644DA2
P 4250 4000
F 0 "#PWR06" H 4250 3750 50  0001 C CNN
F 1 "GND" H 4250 3850 50  0000 C CNN
F 2 "" H 4250 4000 50  0001 C CNN
F 3 "" H 4250 4000 50  0001 C CNN
	1    4250 4000
	1    0    0    -1  
$EndComp
$Comp
L Device:R R2
U 1 1 59644DC6
P 4050 3950
F 0 "R2" V 4130 3950 50  0000 C CNN
F 1 "100K" V 4050 3950 50  0000 C CNN
F 2 "Resistors_THT:R_Axial_DIN0207_L6.3mm_D2.5mm_P7.62mm_Horizontal" V 3980 3950 50  0001 C CNN
F 3 "" H 4050 3950 50  0001 C CNN
	1    4050 3950
	0    1    1    0   
$EndComp
$Comp
L power:GND #PWR07
U 1 1 59644F9C
P 2350 3500
F 0 "#PWR07" H 2350 3250 50  0001 C CNN
F 1 "GND" H 2350 3350 50  0000 C CNN
F 2 "" H 2350 3500 50  0001 C CNN
F 3 "" H 2350 3500 50  0001 C CNN
	1    2350 3500
	1    0    0    -1  
$EndComp
$Comp
L Device:LED D2
U 1 1 59644FD8
P 2350 3300
F 0 "D2" H 2350 3400 50  0000 C CNN
F 1 "LED" H 2350 3200 50  0000 C CNN
F 2 "LED_THT:LED_Rectangular_W5.0mm_H2.0mm" H 2350 3300 50  0001 C CNN
F 3 "" H 2350 3300 50  0001 C CNN
	1    2350 3300
	0    -1   -1   0   
$EndComp
$Comp
L Device:R R1
U 1 1 59645087
P 2350 2950
F 0 "R1" V 2430 2950 50  0000 C CNN
F 1 "470R" V 2350 2950 50  0000 C CNN
F 2 "Resistors_THT:R_Axial_DIN0207_L6.3mm_D2.5mm_P7.62mm_Horizontal" V 2280 2950 50  0001 C CNN
F 3 "" H 2350 2950 50  0001 C CNN
	1    2350 2950
	1    0    0    -1  
$EndComp
$Comp
L Switch:SW_Push SW3
U 1 1 596453B5
P 6350 4950
F 0 "SW3" H 6400 5050 50  0000 L CNN
F 1 "SW_Push" H 6350 4890 50  0000 C CNN
F 2 "Button_Switch_THT:SW_Tactile_SKHH_Angled" H 6350 5150 50  0001 C CNN
F 3 "" H 6350 5150 50  0001 C CNN
	1    6350 4950
	1    0    0    -1  
$EndComp
$Comp
L Device:R R4
U 1 1 596455C2
P 7050 4700
F 0 "R4" V 6950 4700 50  0000 C CNN
F 1 "100K" V 7050 4700 50  0000 C CNN
F 2 "Resistors_THT:R_Axial_DIN0207_L6.3mm_D2.5mm_P7.62mm_Horizontal" V 6980 4700 50  0001 C CNN
F 3 "" H 7050 4700 50  0001 C CNN
	1    7050 4700
	0    1    1    0   
$EndComp
$Comp
L Device:R R5
U 1 1 59645609
P 7050 4950
F 0 "R5" V 7130 4950 50  0000 C CNN
F 1 "100K" V 7050 4950 50  0000 C CNN
F 2 "Resistors_THT:R_Axial_DIN0207_L6.3mm_D2.5mm_P7.62mm_Horizontal" V 6980 4950 50  0001 C CNN
F 3 "" H 7050 4950 50  0001 C CNN
	1    7050 4950
	0    -1   -1   0   
$EndComp
$Comp
L Device:R R3
U 1 1 59645698
P 7050 4450
F 0 "R3" V 7130 4450 50  0000 C CNN
F 1 "100K" V 7050 4450 50  0000 C CNN
F 2 "Resistors_THT:R_Axial_DIN0207_L6.3mm_D2.5mm_P7.62mm_Horizontal" V 6980 4450 50  0001 C CNN
F 3 "" H 7050 4450 50  0001 C CNN
	1    7050 4450
	0    -1   -1   0   
$EndComp
$Comp
L power:GND #PWR08
U 1 1 59646704
P 7300 4700
F 0 "#PWR08" H 7300 4450 50  0001 C CNN
F 1 "GND" H 7300 4550 50  0000 C CNN
F 2 "" H 7300 4700 50  0001 C CNN
F 3 "" H 7300 4700 50  0001 C CNN
	1    7300 4700
	0    -1   -1   0   
$EndComp
$Comp
L Switch:SW_Push SW2
U 1 1 5964683B
P 6350 4700
F 0 "SW2" H 6400 4800 50  0000 L CNN
F 1 "SW_Push" H 6350 4640 50  0000 C CNN
F 2 "Button_Switch_THT:SW_Tactile_SKHH_Angled" H 6350 4900 50  0001 C CNN
F 3 "" H 6350 4900 50  0001 C CNN
	1    6350 4700
	1    0    0    -1  
$EndComp
$Comp
L Switch:SW_Push SW4
U 1 1 59646868
P 6350 4450
F 0 "SW4" H 6400 4550 50  0000 L CNN
F 1 "SW_Push" H 6350 4390 50  0000 C CNN
F 2 "Button_Switch_THT:SW_Tactile_SKHH_Angled" H 6350 4650 50  0001 C CNN
F 3 "" H 6350 4650 50  0001 C CNN
	1    6350 4450
	1    0    0    -1  
$EndComp
$Comp
L power:+5V #PWR09
U 1 1 59646975
P 6050 4450
F 0 "#PWR09" H 6050 4300 50  0001 C CNN
F 1 "+5V" H 6050 4590 50  0000 C CNN
F 2 "" H 6050 4450 50  0001 C CNN
F 3 "" H 6050 4450 50  0001 C CNN
	1    6050 4450
	0    -1   -1   0   
$EndComp
$Comp
L power:+5V #PWR010
U 1 1 59646B73
P 7900 2550
F 0 "#PWR010" H 7900 2400 50  0001 C CNN
F 1 "+5V" H 7900 2690 50  0000 C CNN
F 2 "" H 7900 2550 50  0001 C CNN
F 3 "" H 7900 2550 50  0001 C CNN
	1    7900 2550
	1    0    0    -1  
$EndComp
$Comp
L Device:D D1
U 1 1 596BFA88
P 3900 3050
F 0 "D1" H 3900 3150 50  0000 C CNN
F 1 "D" H 3900 2950 50  0000 C CNN
F 2 "Diode_THT:D_A-405_P7.62mm_Horizontal" H 3900 3050 50  0001 C CNN
F 3 "" H 3900 3050 50  0001 C CNN
	1    3900 3050
	0    1    1    0   
$EndComp
$Comp
L power:+5V #PWR011
U 1 1 596C4EE7
P 2350 2750
F 0 "#PWR011" H 2350 2600 50  0001 C CNN
F 1 "+5V" H 2350 2890 50  0000 C CNN
F 2 "" H 2350 2750 50  0001 C CNN
F 3 "" H 2350 2750 50  0001 C CNN
	1    2350 2750
	1    0    0    -1  
$EndComp
$Comp
L power:GND #PWR012
U 1 1 596D1BF1
P 1650 4000
F 0 "#PWR012" H 1650 3750 50  0001 C CNN
F 1 "GND" H 1650 3850 50  0000 C CNN
F 2 "" H 1650 4000 50  0001 C CNN
F 3 "" H 1650 4000 50  0001 C CNN
	1    1650 4000
	1    0    0    -1  
$EndComp
$Comp
L power:+9V #PWR013
U 1 1 596D4056
P 1550 2800
F 0 "#PWR013" H 1550 2650 50  0001 C CNN
F 1 "+9V" H 1550 2940 50  0000 C CNN
F 2 "" H 1550 2800 50  0001 C CNN
F 3 "" H 1550 2800 50  0001 C CNN
	1    1550 2800
	1    0    0    -1  
$EndComp
$Comp
L power:GND #PWR014
U 1 1 59AE0197
P 8750 3150
F 0 "#PWR014" H 8750 2900 50  0001 C CNN
F 1 "GND" H 8750 3000 50  0000 C CNN
F 2 "" H 8750 3150 50  0001 C CNN
F 3 "" H 8750 3150 50  0001 C CNN
	1    8750 3150
	0    -1   -1   0   
$EndComp
$Comp
L Device:CP C1
U 1 1 59B60D2B
P 3600 3050
F 0 "C1" H 3625 3150 50  0000 L CNN
F 1 "10uF" H 3625 2950 50  0000 L CNN
F 2 "Capacitor_THT:CP_Radial_D5.0mm_P2.00mm" H 3638 2900 50  0001 C CNN
F 3 "" H 3600 3050 50  0001 C CNN
	1    3600 3050
	1    0    0    -1  
$EndComp
$Comp
L Device:CP C2
U 1 1 59B60DAE
P 1200 3000
F 0 "C2" H 1225 3100 50  0000 L CNN
F 1 "1000uF" H 1225 2900 50  0000 L CNN
F 2 "Capacitors_THT:CP_Radial_D10.0mm_P5.00mm" H 1238 2850 50  0001 C CNN
F 3 "" H 1200 3000 50  0001 C CNN
	1    1200 3000
	1    0    0    -1  
$EndComp
Connection ~ 3900 3350
Wire Wire Line
	3600 3200 3600 3350
Connection ~ 3900 2750
Wire Wire Line
	3600 2900 3600 2750
Wire Wire Line
	8200 3150 8300 3150
Wire Wire Line
	3900 3700 3950 3700
Wire Wire Line
	4250 2700 4250 2750
Wire Wire Line
	4250 3300 4250 3350
Wire Wire Line
	4250 3900 4250 3950
Wire Wire Line
	4200 3950 4250 3950
Connection ~ 4250 3950
Wire Wire Line
	2350 2750 2350 2800
Wire Wire Line
	2350 3100 2350 3150
Wire Wire Line
	2350 3500 2350 3450
Wire Wire Line
	6850 4250 6850 4450
Wire Wire Line
	6550 4450 6850 4450
Wire Wire Line
	6800 4150 6800 4700
Wire Wire Line
	6550 4700 6800 4700
Wire Wire Line
	6750 4050 6750 4950
Wire Wire Line
	6550 4950 6750 4950
Wire Wire Line
	7250 4450 7250 4700
Wire Wire Line
	7250 4950 7200 4950
Wire Wire Line
	7200 4700 7250 4700
Connection ~ 7250 4700
Wire Wire Line
	7250 4450 7200 4450
Connection ~ 6750 4950
Connection ~ 6800 4700
Connection ~ 6850 4450
Wire Wire Line
	6050 4450 6100 4450
Wire Wire Line
	6100 4450 6100 4700
Wire Wire Line
	6100 4950 6150 4950
Connection ~ 6100 4450
Wire Wire Line
	6150 4700 6100 4700
Connection ~ 6100 4700
Wire Wire Line
	8500 3800 8500 3850
Wire Wire Line
	3600 2750 3900 2750
Wire Wire Line
	3900 2750 3900 2900
Connection ~ 4250 2750
Wire Wire Line
	3900 3200 3900 3350
Wire Wire Line
	3600 3350 3900 3350
Connection ~ 4250 3350
Wire Wire Line
	3900 3350 4250 3350
Wire Wire Line
	3900 2750 4250 2750
Wire Wire Line
	3900 3700 3900 3950
Wire Wire Line
	4250 3950 4250 4000
Wire Wire Line
	7250 4700 7250 4950
Wire Wire Line
	7250 4700 7300 4700
Wire Wire Line
	6750 4950 6900 4950
Wire Wire Line
	6800 4700 6900 4700
Wire Wire Line
	6850 4450 6900 4450
Wire Wire Line
	6100 4450 6150 4450
Wire Wire Line
	6100 4700 6100 4950
Wire Wire Line
	4250 2750 4250 2800
Wire Wire Line
	4250 3350 4250 3500
$Comp
L Device:Q_NMOS_GDS Q1
U 1 1 5A94BD48
P 4150 3700
F 0 "Q1" H 4355 3746 50  0000 L CNN
F 1 "Q_NMOS_GDS" H 4355 3655 50  0000 L CNN
F 2 "Package_TO_SOT_THT:TO-220-3_Vertical" H 4350 3800 50  0001 C CNN
F 3 "~" H 4150 3700 50  0001 C CNN
	1    4150 3700
	1    0    0    -1  
$EndComp
$Comp
L power:GND #PWR0101
U 1 1 5A94C022
P 1200 3200
F 0 "#PWR0101" H 1200 2950 50  0001 C CNN
F 1 "GND" H 1205 3027 50  0000 C CNN
F 2 "" H 1200 3200 50  0001 C CNN
F 3 "" H 1200 3200 50  0001 C CNN
	1    1200 3200
	1    0    0    -1  
$EndComp
$Comp
L power:+9V #PWR0102
U 1 1 5A94C1B5
P 1200 2800
F 0 "#PWR0102" H 1200 2650 50  0001 C CNN
F 1 "+9V" H 1215 2973 50  0000 C CNN
F 2 "" H 1200 2800 50  0001 C CNN
F 3 "" H 1200 2800 50  0001 C CNN
	1    1200 2800
	1    0    0    -1  
$EndComp
Wire Wire Line
	1200 3200 1200 3150
Wire Wire Line
	1200 2850 1200 2800
$Comp
L MCU_Module:Arduino_Nano_v3.x A1
U 1 1 5A9CD1E0
P 7700 3650
F 0 "A1" H 7700 1950 50  0000 C CNN
F 1 "Arduino_Nano_v3.x" H 7700 2050 50  0000 C CNN
F 2 "Module:Arduino_Nano" H 7850 2700 50  0001 L CNN
F 3 "http://www.mouser.com/pdfdocs/Gravitech_Arduino_Nano3_0.pdf" H 7700 2650 50  0001 C CNN
	1    7700 3650
	1    0    0    -1  
$EndComp
Wire Wire Line
	7700 4650 7700 4700
Wire Wire Line
	7800 4650 7800 4700
Wire Wire Line
	7800 4700 7700 4700
Connection ~ 7700 4700
Wire Wire Line
	7700 4700 7700 4750
NoConn ~ 7800 2650
Wire Wire Line
	7900 2650 7900 2550
$Comp
L power:+9V #PWR0103
U 1 1 5A9D4360
P 7600 2550
F 0 "#PWR0103" H 7600 2400 50  0001 C CNN
F 1 "+9V" H 7615 2723 50  0000 C CNN
F 2 "" H 7600 2550 50  0001 C CNN
F 3 "" H 7600 2550 50  0001 C CNN
	1    7600 2550
	1    0    0    -1  
$EndComp
Wire Wire Line
	7600 2650 7600 2550
Text GLabel 7150 3350 0    50   Input ~ 0
Motor
Wire Wire Line
	7150 3350 7200 3350
Text GLabel 3850 3700 0    50   Input ~ 0
Motor
Wire Wire Line
	3850 3700 3900 3700
Connection ~ 3900 3700
$Comp
L power:+5V #PWR0104
U 1 1 5A9DDDD9
P 8500 3450
F 0 "#PWR0104" H 8500 3300 50  0001 C CNN
F 1 "+5V" H 8515 3623 50  0000 C CNN
F 2 "" H 8500 3450 50  0001 C CNN
F 3 "" H 8500 3450 50  0001 C CNN
	1    8500 3450
	1    0    0    -1  
$EndComp
Wire Wire Line
	8500 3450 8500 3500
Wire Wire Line
	8350 3650 8200 3650
Wire Wire Line
	6850 4250 7200 4250
Wire Wire Line
	6800 4150 7200 4150
Wire Wire Line
	6750 4050 7200 4050
NoConn ~ 7200 3250
NoConn ~ 7200 3050
NoConn ~ 7200 3150
NoConn ~ 7200 3450
NoConn ~ 7200 3550
NoConn ~ 7200 3650
NoConn ~ 7200 3750
NoConn ~ 7200 3850
NoConn ~ 7200 3950
NoConn ~ 7200 4350
NoConn ~ 8200 4350
NoConn ~ 8200 4250
NoConn ~ 8200 4150
NoConn ~ 8200 4050
NoConn ~ 8200 3950
NoConn ~ 8200 3850
NoConn ~ 8200 3750
NoConn ~ 8200 3450
NoConn ~ 8200 3050
$Comp
L Switch:SW_DPDT_x2 SW1
U 1 1 5A9FA5B0
P 1650 3050
F 0 "SW1" H 1696 2862 50  0000 R CNN
F 1 "SW_DPDT_x2" H 1900 2750 50  0000 R CNN
F 2 "switch:switch" H 1650 3050 50  0001 C CNN
F 3 "" H 1650 3050 50  0001 C CNN
	1    1650 3050
	0    -1   -1   0   
$EndComp
NoConn ~ 1750 2850
Wire Wire Line
	1550 2850 1550 2800
$Comp
L Shake_Table_PCB-rescue:Jack-DC-Shake_Table_PCB-cache J1
U 1 1 5A9FE149
P 1300 3850
F 0 "J1" H 1378 4175 50  0000 C CNN
F 1 "Jack-DC" H 1378 4084 50  0000 C CNN
F 2 "Connector_BarrelJack:BarrelJack_Horizontal" H 1350 3810 50  0001 C CNN
F 3 "~" H 1350 3810 50  0001 C CNN
	1    1300 3850
	1    0    0    -1  
$EndComp
Wire Wire Line
	1600 3850 1650 3850
Wire Wire Line
	1650 3850 1650 3950
Wire Wire Line
	1600 3950 1650 3950
Connection ~ 1650 3950
Wire Wire Line
	1650 3950 1650 4000
Wire Wire Line
	1600 3750 1650 3750
Wire Wire Line
	1650 3250 1650 3750
$Comp
L Mechanical:Mounting_Hole MK1
U 1 1 5AA04FC2
P 9450 2050
F 0 "MK1" H 9550 2096 50  0000 L CNN
F 1 "Mounting_Hole" H 9550 2005 50  0000 L CNN
F 2 "Mounting_Holes:MountingHole_2.5mm" H 9450 2050 50  0001 C CNN
F 3 "" H 9450 2050 50  0001 C CNN
	1    9450 2050
	1    0    0    -1  
$EndComp
$Comp
L Mechanical:Mounting_Hole MK2
U 1 1 5AA05054
P 9450 2500
F 0 "MK2" H 9550 2546 50  0000 L CNN
F 1 "Mounting_Hole" H 9550 2455 50  0000 L CNN
F 2 "Mounting_Holes:MountingHole_2.5mm" H 9450 2500 50  0001 C CNN
F 3 "" H 9450 2500 50  0001 C CNN
	1    9450 2500
	1    0    0    -1  
$EndComp
Wire Wire Line
	8700 3150 8750 3150
$Comp
L Switch:SW_Push SW5
U 1 1 5B1CAC06
P 8500 3150
F 0 "SW5" H 8550 3250 50  0000 L CNN
F 1 "SW_Push" H 8500 3090 50  0000 C CNN
F 2 "Button_Switch_THT:SW_Tactile_SKHH_Angled" H 8500 3350 50  0001 C CNN
F 3 "" H 8500 3350 50  0001 C CNN
	1    8500 3150
	1    0    0    -1  
$EndComp
$EndSCHEMATC
